<svg width="60" height="62" viewBox="0 0 60 62" fill="none" xmlns="http://www.w3.org/2000/svg" style="transform:rotate(180deg)">
<rect x="0.5" y="0.5" width="59" height="61" rx="7.5" fill="white" stroke="#EEEEEE"/>
<path d="M23 32.5C23.8284 32.5 24.5 31.8284 24.5 31C24.5 30.1716 23.8284 29.5 23 29.5L23 32.5ZM21.4393 29.9393C20.8536 30.5251 20.8536 31.4749 21.4393 32.0607L30.9853 41.6066C31.5711 42.1924 32.5208 42.1924 33.1066 41.6066C33.6924 41.0208 33.6924 40.0711 33.1066 39.4853L24.6213 31L33.1066 22.5147C33.6924 21.9289 33.6924 20.9792 33.1066 20.3934C32.5208 19.8076 31.5711 19.8076 30.9853 20.3934L21.4393 29.9393ZM23 29.5L22.5 29.5L22.5 32.5L23 32.5L23 29.5Z" fill="#DDDDDD"/>
</svg>
