<svg width="40" height="41" viewBox="0 0 40 41" fill="none" xmlns="http://www.w3.org/2000/svg">
<g clip-path="url(#clip0)">
<path d="M26.3977 28.2908L28.2269 25.3227L31.5278 24.1969L31.8935 20.7299L34.377 18.285L33.1963 15.0033L34.377 11.7215L31.8936 9.27656L31.5279 5.80969L28.227 4.68391L26.3978 1.7157L22.938 2.13344L19.9991 0.257812L17.0601 2.13359L13.6004 1.71586L11.7713 4.68398L8.47031 5.80977L8.10461 9.27664L5.62109 11.7216L6.80187 15.0034L5.62109 18.2852L8.10453 20.73L8.47023 24.197L11.7712 25.3227L13.6003 28.2909L17.0601 27.8732L19.9991 29.7489L22.938 27.8732L26.3977 28.2908ZM9.88742 15.0034C9.88742 9.42781 14.4235 4.89172 19.9991 4.89172C25.5746 4.89172 30.1107 9.42781 30.1107 15.0034C30.1107 20.5789 25.5746 25.115 19.9991 25.115C14.4235 25.115 9.88742 20.5789 9.88742 15.0034Z" fill="#FFBA69"/>
<path d="M20.0008 7.23694C15.7184 7.23694 12.2344 10.7209 12.2344 15.0033C12.2344 19.2858 15.7184 22.7697 20.0008 22.7697C24.2832 22.7697 27.7672 19.2858 27.7672 15.0033C27.7672 10.7209 24.2832 7.23694 20.0008 7.23694Z" fill="#FFBA69"/>
<path d="M16.5069 30.3023L12.3912 30.7991L10.2168 27.2705L9.47758 27.0184L6.28906 36.9845L12.0293 36.6688L16.5203 40.2579L19.1631 31.9976L16.5069 30.3023Z" fill="#FFBA69" fill-opacity="0.7"/>
<path d="M29.7823 27.2705L27.6077 30.7991L23.4922 30.3023L20.8359 31.9976L23.4787 40.2579L27.9698 36.6688L33.71 36.9845L30.5215 27.0184L29.7823 27.2705Z" fill="#FFBA69" fill-opacity="0.7"/>
<path d="M17.7788 17.5729C18.6108 16.8796 19.2738 16.3032 19.7678 15.8439C20.2618 15.3759 20.6735 14.8906 21.0028 14.3879C21.3322 13.8852 21.4968 13.3912 21.4968 12.9059C21.4968 12.4639 21.3928 12.1172 21.1848 11.8659C20.9768 11.6146 20.6562 11.4889 20.2228 11.4889C19.7895 11.4889 19.4558 11.6362 19.2218 11.9309C18.9878 12.2169 18.8665 12.6112 18.8578 13.1139H17.0898C17.1245 12.0739 17.4322 11.2852 18.0128 10.7479C18.6022 10.2106 19.3475 9.94189 20.2488 9.94189C21.2368 9.94189 21.9952 10.2062 22.5238 10.7349C23.0525 11.2549 23.3168 11.9439 23.3168 12.8019C23.3168 13.4779 23.1348 14.1236 22.7708 14.7389C22.4068 15.3542 21.9908 15.8916 21.5228 16.3509C21.0548 16.8016 20.4438 17.3476 19.6898 17.9889H23.5248V19.4969H17.1028V18.1449L17.7788 17.5729Z" fill="white"/>
</g>
<defs>
<clipPath id="clip0">
<rect width="40" height="40" fill="white" transform="translate(0 0.257812)"/>
</clipPath>
</defs>
</svg>
