<svg width="20" height="24" viewBox="0 0 20 24" fill="none" xmlns="http://www.w3.org/2000/svg">
<path d="M10 0L0 4.36364V10.9091C0 16.9636 4.26667 22.6255 10 24C15.7333 22.6255 20 16.9636 20 10.9091V4.36364L10 0ZM10 11.9891H17.7778C17.1889 16.4836 14.1333 20.4873 10 21.7418V12H2.22222V5.78182L10 2.38909V11.9891Z" fill="#0A70F7"/>
</svg>
