<svg width="40" height="40" viewBox="0 0 40 40" fill="none" xmlns="http://www.w3.org/2000/svg">
<path d="M9.15109 5.7V19H6.07309V8.17H3.41309V5.7H9.15109Z" fill="#222222"/>
<path d="M24.074 23.492V26H14.023V24.005L19.153 19.16C19.6977 18.6407 20.065 18.1973 20.255 17.83C20.445 17.45 20.54 17.0763 20.54 16.709C20.54 16.177 20.3564 15.7717 19.989 15.493C19.6344 15.2017 19.1087 15.056 18.412 15.056C17.8294 15.056 17.3037 15.17 16.835 15.398C16.3664 15.6133 15.9737 15.9427 15.657 16.386L13.415 14.942C13.9344 14.1693 14.65 13.5677 15.562 13.137C16.474 12.6937 17.519 12.472 18.697 12.472C19.685 12.472 20.5464 12.6367 21.281 12.966C22.0284 13.2827 22.6047 13.7387 23.01 14.334C23.428 14.9167 23.637 15.607 23.637 16.405C23.637 17.127 23.485 17.8047 23.181 18.438C22.877 19.0713 22.288 19.7933 21.414 20.604L18.355 23.492H24.074Z" fill="#222222"/>
<path d="M34.3324 29.115C35.4977 29.305 36.3907 29.742 37.0114 30.426C37.632 31.0973 37.9424 31.9333 37.9424 32.934C37.9424 33.7066 37.7397 34.4223 37.3344 35.081C36.929 35.727 36.3084 36.2463 35.4724 36.639C34.649 37.0316 33.6357 37.228 32.4324 37.228C31.495 37.228 30.5704 37.1076 29.6584 36.867C28.759 36.6136 27.9927 36.259 27.3594 35.803L28.5564 33.447C29.063 33.827 29.6457 34.1246 30.3044 34.34C30.9757 34.5426 31.6597 34.644 32.3564 34.644C33.129 34.644 33.737 34.4983 34.1804 34.207C34.6237 33.903 34.8454 33.4786 34.8454 32.934C34.8454 31.8446 34.0157 31.3 32.3564 31.3H30.9504V29.267L33.6864 26.17H28.0244V23.7H37.3344V25.695L34.3324 29.115Z" fill="#222222"/>
</svg>
