<svg width="21" height="20" viewBox="0 0 21 20" fill="none" xmlns="http://www.w3.org/2000/svg">
<path d="M19.4923 3.86956C19.4923 5.25401 18.2165 6.37634 16.6426 6.37634C15.0687 6.37634 13.793 5.25401 13.793 3.86956C13.793 2.48525 15.0687 1.36292 16.6426 1.36292C18.2165 1.36292 19.4923 2.48525 19.4923 3.86956Z" fill="#DDDDDD"/>
<path d="M16.642 6.95471C14.7077 6.95471 13.1348 5.57094 13.1348 3.86941C13.1348 2.16801 14.7077 0.784241 16.642 0.784241C18.5764 0.784241 20.1493 2.16801 20.1493 3.86941C20.1493 5.57094 18.5764 6.95471 16.642 6.95471ZM16.642 1.9412C15.4329 1.9412 14.45 2.80665 14.45 3.86941C14.45 4.9323 15.4329 5.79776 16.642 5.79776C17.8511 5.79776 18.834 4.9323 18.834 3.86941C18.834 2.80665 17.8511 1.9412 16.642 1.9412Z" fill="#DDDDDD"/>
<path d="M19.4923 16.2108C19.4923 17.5951 18.2165 18.7175 16.6426 18.7175C15.0687 18.7175 13.793 17.5951 13.793 16.2108C13.793 14.8263 15.0687 13.704 16.6426 13.704C18.2165 13.704 19.4923 14.8263 19.4923 16.2108Z" fill="#DDDDDD"/>
<path d="M16.642 19.296C14.7077 19.296 13.1348 17.9122 13.1348 16.2108C13.1348 14.5092 14.7077 13.1254 16.642 13.1254C18.5764 13.1254 20.1493 14.5092 20.1493 16.2108C20.1493 17.9122 18.5764 19.296 16.642 19.296ZM16.642 14.2824C15.4329 14.2824 14.45 15.1479 14.45 16.2108C14.45 17.2735 15.4329 18.139 16.642 18.139C17.8511 18.139 18.834 17.2735 18.834 16.2108C18.834 15.1479 17.8511 14.2824 16.642 14.2824Z" fill="#DDDDDD"/>
<path d="M7.21509 10.04C7.21509 11.4245 5.93918 12.5467 4.36528 12.5467C2.79154 12.5467 1.51562 11.4245 1.51562 10.04C1.51562 8.65549 2.79154 7.53326 4.36528 7.53326C5.93918 7.53326 7.21509 8.65549 7.21509 10.04Z" fill="#DDDDDD"/>
<path d="M4.36662 13.1249C2.43246 13.1249 0.859375 11.7413 0.859375 10.0397C0.859375 8.33818 2.43246 6.95453 4.36662 6.95453C6.30094 6.95453 7.87402 8.33818 7.87402 10.0397C7.87402 11.7413 6.30094 13.1249 4.36662 13.1249ZM4.36662 8.1115C3.15751 8.1115 2.17461 8.97682 2.17461 10.0397C2.17461 11.1026 3.15751 11.968 4.36662 11.968C5.57589 11.968 6.55879 11.1026 6.55879 10.0397C6.55879 8.97682 5.57589 8.1115 4.36662 8.1115Z" fill="#DDDDDD"/>
<path d="M6.43629 9.66956C6.13108 9.66956 5.83471 9.52988 5.67335 9.28004C5.43397 8.91059 5.58136 8.4393 6.00136 8.22788L14.1373 4.14775C14.5573 3.93563 15.093 4.06527 15.3334 4.43614C15.5727 4.8056 15.4254 5.27689 15.0054 5.48831L6.86929 9.56844C6.7325 9.63707 6.58351 9.66956 6.43629 9.66956Z" fill="#DDDDDD"/>
<path d="M14.5725 16.0335C14.4251 16.0335 14.2761 16.001 14.1393 15.9324L6.00319 11.8521C5.58319 11.6416 5.43596 11.1703 5.67535 10.8C5.91377 10.4298 6.45033 10.2994 6.8713 10.5116L15.0074 14.5918C15.4274 14.8024 15.5747 15.2737 15.3353 15.644C15.1731 15.8938 14.8767 16.0335 14.5725 16.0335Z" fill="#DDDDDD"/>
</svg>
