<svg width="10" height="12" viewBox="0 0 10 12" fill="none" xmlns="http://www.w3.org/2000/svg">
<path d="M7.35077 1.34709L6.94775 2.04448L8.34423 2.85054L8.74726 2.15313C8.85826 1.95954 8.79216 1.71392 8.59932 1.60207L7.90194 1.19903C7.709 1.08731 7.46263 1.15341 7.35077 1.34709Z" fill="#CCCCCC"/>
<path d="M4.87496 1.8149C5.12986 1.8149 5.37886 1.83984 5.62496 1.875V1.22269L6.14059 1.21875V0.375C6.14059 0.167725 5.97286 0 5.76559 0H3.98828C3.78101 0 3.61328 0.167725 3.61328 0.375V1.21875L4.12497 1.22269V1.875C4.37106 1.83984 4.62006 1.8149 4.87496 1.8149Z" fill="#CCCCCC"/>
<path d="M4.875 2.25C2.18261 2.25 0 4.43259 0 7.125C0 9.81741 2.18261 12 4.875 12C7.56739 12 9.75 9.81741 9.75 7.125C9.75 4.43259 7.56739 2.25 4.875 2.25ZM7.15314 9.41625L4.31249 7.44967V4.67333H5.13226V7.02018L7.61971 8.74227L7.15314 9.41625Z" fill="#CCCCCC"/>
</svg>
