<svg width="30" height="31" viewBox="0 0 30 31" fill="none" xmlns="http://www.w3.org/2000/svg">
<circle cx="9.77586" cy="21.8171" r="4.52586" fill="#AAAAAA"/>
<rect x="16.2422" y="17.9375" width="7.75862" height="7.75862" rx="1" fill="#AAAAAA"/>
<path d="M14.0838 7.79972C14.4687 7.13306 15.431 7.13305 15.8159 7.79972L19.1232 13.5282C19.5081 14.1948 19.0269 15.0282 18.2571 15.0282H11.6425C10.8727 15.0282 10.3916 14.1948 10.7765 13.5282L14.0838 7.79972Z" fill="#AAAAAA"/>
</svg>
