<svg width="31" height="31" viewBox="0 0 31 31" fill="none" xmlns="http://www.w3.org/2000/svg">
<path d="M18.9441 8.5409L18.3027 9.65081L20.5252 10.9337L21.1667 9.82372C21.3433 9.51562 21.2381 9.1247 20.9312 8.9467L19.8213 8.30526C19.5143 8.12745 19.1222 8.23264 18.9441 8.5409Z" fill="#AAAAAA"/>
<path d="M15.0021 9.2859C15.4078 9.2859 15.8041 9.32559 16.1958 9.38155V8.34338L17.0164 8.33711V6.99428C17.0164 6.6644 16.7494 6.39746 16.4196 6.39746H13.591C13.2611 6.39746 12.9941 6.6644 12.9941 6.99428V8.33711L13.8085 8.34338V9.38155C14.2002 9.32559 14.5964 9.2859 15.0021 9.2859Z" fill="#AAAAAA"/>
<path d="M15.0028 9.97827C10.7178 9.97827 7.24414 13.4519 7.24414 17.7369C7.24414 22.0219 10.7178 25.4955 15.0028 25.4955C19.2877 25.4955 22.7614 22.0219 22.7614 17.7369C22.7614 13.4519 19.2877 9.97827 15.0028 9.97827ZM18.6284 21.3835L14.1075 18.2536V13.835H15.4122V17.5701L19.371 20.3108L18.6284 21.3835Z" fill="#AAAAAA"/>
<rect x="5.79695" y="9.36706" width="3.02932" height="23.2724" rx="1.5" transform="rotate(-43.8354 5.79695 9.36706)" fill="#AAAAAA" stroke="white"/>
</svg>
