<svg width="570" height="360" viewBox="0 0 570 360" fill="none" xmlns="http://www.w3.org/2000/svg">
<mask id="mask0" mask-type="alpha" maskUnits="userSpaceOnUse" x="0" y="0" width="570" height="360">
<rect width="570" height="360" fill="white"/>
</mask>
<g mask="url(#mask0)">
<rect x="386" y="191" width="137" height="137" fill="#0A70F7"/>
<path d="M285 80H295V90H285V80Z" fill="#0A70F7"/>
<path d="M275 223H285V233H275V223Z" fill="#0A70F7"/>
<path d="M332 328H342V338H332V328Z" fill="#0A70F7"/>
<path d="M341 120H350V130H341V120Z" fill="#EBEDF0"/>
<path d="M503 98H512V108H503V98Z" fill="#EBEDF0"/>
<path d="M45 282H54V292H45V282Z" fill="#EBEDF0"/>
<path d="M442 88L442 98L399 98L399 88L442 88Z" fill="#0A70F7"/>
<path d="M531 62L521 62L521 25L531 25L531 62Z" fill="#0A70F7"/>
<path d="M148 284L138 284L138 213L148 213L148 284Z" fill="#0A70F7"/>
<path d="M138 284L138 274L388 274L388 284L138 284Z" fill="#0A70F7"/>
<path d="M459 142H469V191H459V142Z" fill="#0A70F7"/>
<rect x="67" y="63" width="158" height="150" fill="#001C44" fill-opacity="0.08"/>
<rect x="129.864" y="149.727" width="12.2727" height="12.2727" fill="#0A70F7"/>
<rect x="120.045" y="138.681" width="12.2727" height="12.2727" fill="#0A70F7"/>
<rect x="140.909" y="139.909" width="12.2727" height="12.2727" fill="#0A70F7"/>
<rect x="150.727" y="128.863" width="12.2727" height="12.2727" fill="#0A70F7"/>
<rect x="161.773" y="119.046" width="12.2727" height="12.2727" fill="#0A70F7"/>
<rect x="172.818" y="108" width="12.2727" height="12.2727" fill="#0A70F7"/>
<rect x="109" y="127.637" width="12.2727" height="12.2727" fill="#0A70F7"/>
<rect x="431" y="247.75" width="11.7496" height="11.7496" fill="white"/>
<rect x="431" y="259.502" width="11.7496" height="11.7496" fill="white"/>
<rect x="442.75" y="236" width="11.7496" height="11.7496" fill="white"/>
<rect x="466.251" y="271.25" width="11.7496" height="11.7496" fill="white"/>
<rect x="454.5" y="259.502" width="11.7496" height="11.7496" fill="white"/>
<rect x="442.75" y="271.25" width="11.7496" height="11.7496" fill="white"/>
<rect x="454.5" y="236" width="11.7496" height="11.7496" fill="white"/>
<rect x="466.251" y="247.75" width="11.7496" height="11.7496" fill="white"/>
<rect x="431" y="236" width="11.7496" height="11.7496" fill="white"/>
</g>
</svg>
