<svg width="478" height="360" viewBox="0 0 478 360" fill="none" xmlns="http://www.w3.org/2000/svg">
<mask id="mask0" mask-type="alpha" maskUnits="userSpaceOnUse" x="0" y="0" width="478" height="360">
<rect width="478" height="360" fill="white"/>
</mask>
<g mask="url(#mask0)">
<path d="M207 101L207 91L272 91L272 101L207 101Z" fill="#0A70F7"/>
<path d="M207 270L207 260L272 260L272 270L207 270Z" fill="#0A70F7"/>
<path d="M325 153H334V207H325V153Z" fill="#EBEDF0"/>
<path d="M145 153H154V207H145V153Z" fill="#EBEDF0"/>
<path d="M43 58H53V68H43V58Z" fill="#0A70F7"/>
<path d="M239 350H249V360H239V350Z" fill="#0A70F7"/>
<path d="M446 9H456V19H446V9Z" fill="#0A70F7"/>
<path d="M435 170H445V180H435V170Z" fill="#0A70F7"/>
<path d="M53 137H62V147H53V137Z" fill="#EBEDF0"/>
<path d="M235 7H244V17H235V7Z" fill="#EBEDF0"/>
<path d="M16 333H25V343H16V333Z" fill="#EBEDF0"/>
<path d="M455 342L455 352L412 352L412 342L455 342Z" fill="#0A70F7"/>
<path d="M26 212L16 212L16 169L26 169L26 212Z" fill="#0A70F7"/>
<rect x="272" y="207" width="115" height="115" fill="#EBEDF0"/>
<rect x="92" y="207" width="115" height="115" fill="#0A70F7"/>
<path d="M139.76 273.52H158.52V292.279H139.76V273.52Z" fill="#EBEDF0"/>
<path d="M121 254.76H139.76V273.52H121V254.76Z" fill="white"/>
<path d="M158.52 236H177.279V254.76H158.52V236Z" fill="#EBEDF0"/>
<path d="M326.76 274.52H345.52V293.279H326.76V274.52Z" fill="#0A70F7"/>
<path d="M308 255.76H326.76V274.52H308V255.76Z" fill="white"/>
<path d="M326.76 237H345.52V255.76H326.76V237Z" fill="white"/>
<rect x="92" y="38" width="115" height="115" fill="#EBEDF0"/>
<rect x="272" y="38" width="115" height="115" fill="#0A70F7"/>
<path d="M329.76 95.7598H348.52V114.52H329.76V95.7598Z" fill="#EBEDF0"/>
<path d="M311 77H329.76V95.7598H311V77Z" fill="white"/>
<path d="M158.52 95.7598H177.279V114.52H158.52V95.7598Z" fill="#0A70F7"/>
<path d="M121 95.7598H139.76V114.52H121V95.7598Z" fill="white"/>
<path d="M139.76 77H158.52V95.7598H139.76V77Z" fill="white"/>
</g>
</svg>
