<svg width="430" height="261" viewBox="0 0 430 261" fill="none" xmlns="http://www.w3.org/2000/svg">
<path d="M218 94H186V126H218V94Z" fill="#0A70F7"/>
<path d="M218 126H186V158H218V126Z" fill="#0A70F7"/>
<path d="M250 62H218V94H250V62Z" fill="#0A70F7"/>
<path d="M314 158H282V190H314V158Z" fill="#0A70F7"/>
<path d="M282 126H250V158H282V126Z" fill="#0A70F7"/>
<path d="M250 158H218V190H250V158Z" fill="#0A70F7"/>
<path d="M282 62H250V94H282V62Z" fill="#0A70F7"/>
<path d="M314 94H282V126H314V94Z" fill="#0A70F7"/>
<path d="M218 62H186V94H218V62Z" fill="#0A70F7"/>
<path d="M358 48H390V80H358V48Z" fill="#0A70F7"/>
<path d="M326 16H358V48H326V16Z" fill="white"/>
<path d="M132 9H164V41H132V9Z" fill="white"/>
<path d="M101 195H133V227H101V195Z" fill="#0A70F7"/>
<path d="M133 195H165V227H133V195Z" fill="#0A70F7"/>
<path d="M133 227H165V259H133V227Z" fill="#0A70F7"/>
<path d="M12 226H44V258H12V226Z" fill="white"/>
<path d="M326 242H358V274H326V242Z" fill="white"/>
<path d="M0 94H32V126H0V94Z" fill="#0A70F7"/>
<path d="M32 94H64V126H32V94Z" fill="#0A70F7"/>
</svg>
