<svg width="18" height="19" viewBox="0 0 18 19" fill="none" xmlns="http://www.w3.org/2000/svg">
<path d="M15.1744 10.3901C15.2076 10.1137 15.2297 9.8263 15.2297 9.52785C15.2297 9.22939 15.2076 8.94199 15.1634 8.66564L17.0315 7.20652C17.1973 7.07387 17.2415 6.83068 17.142 6.64277L15.3734 3.58083C15.2628 3.38185 15.0307 3.31553 14.8317 3.38185L12.632 4.26617C12.1677 3.91244 11.6814 3.62504 11.1397 3.40396L10.8081 1.06053C10.7749 0.839447 10.587 0.684692 10.3659 0.684692H6.82868C6.6076 0.684692 6.43074 0.839447 6.39757 1.06053L6.06596 3.40396C5.52431 3.62504 5.02689 3.9235 4.57367 4.26617L2.37394 3.38185C2.17497 3.30448 1.94284 3.38185 1.8323 3.58083L0.0636656 6.64277C-0.0468739 6.84174 -0.00265793 7.07387 0.174205 7.20652L2.04232 8.66564C1.99811 8.94199 1.96494 9.24044 1.96494 9.52785C1.96494 9.81525 1.98705 10.1137 2.03127 10.3901L0.163151 11.8492C-0.0026582 11.9818 -0.0468739 12.225 0.0526116 12.4129L1.82124 15.4749C1.93178 15.6738 2.16391 15.7402 2.36289 15.6738L4.56262 14.7895C5.02689 15.1432 5.51326 15.4307 6.0549 15.6517L6.38652 17.9952C6.43074 18.2162 6.6076 18.371 6.82868 18.371H10.3659C10.587 18.371 10.7749 18.2162 10.797 17.9952L11.1287 15.6517C11.6703 15.4307 12.1677 15.1322 12.6209 14.7895L14.8207 15.6738C15.0197 15.7512 15.2518 15.6738 15.3623 15.4749L17.131 12.4129C17.2415 12.214 17.1973 11.9818 17.0204 11.8492L15.1744 10.3901ZM8.59731 12.844C6.77341 12.844 5.28113 11.3517 5.28113 9.52785C5.28113 7.70395 6.77341 6.21166 8.59731 6.21166C10.4212 6.21166 11.9135 7.70395 11.9135 9.52785C11.9135 11.3517 10.4212 12.844 8.59731 12.844Z" fill="black"/>
</svg>
