<svg width="7" height="4" viewBox="0 0 7 4" fill="none" xmlns="http://www.w3.org/2000/svg" style=" transform:rotate(180deg);">
<path d="M3.73331 3.71135C3.61324 3.8599 3.38676 3.8599 3.26669 3.71135L0.863831 0.738586C0.705258 0.542404 0.844889 0.25 1.09714 0.25H5.90286C6.15511 0.25 6.29474 0.542403 6.13617 0.738586L3.73331 3.71135Z" fill="#0A70F7"/>
</svg>
