<?xml version="1.0" encoding="UTF-8"?>
<svg width="168px" height="169px" viewBox="0 0 168 169" version="1.1" xmlns="http://www.w3.org/2000/svg" xmlns:xlink="http://www.w3.org/1999/xlink">
    <title>logo</title>
    <defs>
        <polygon id="path-1" points="0.000191999996 0.131519997 167.868477 0.131519997 167.868477 167.999901 0.000191999996 167.999901"></polygon>
        <path d="M0.602879988,72.5462386 C0.602879988,112.205758 32.7542393,144.356157 72.4137586,144.356157 L72.4137586,144.356157 C112.074238,144.356157 144.225597,112.205758 144.225597,72.5462386 L144.225597,72.5462386 C144.225597,32.8847993 112.074238,0.734399985 72.4137586,0.734399985 L72.4137586,0.734399985 C32.7542393,0.734399985 0.602879988,32.8847993 0.602879988,72.5462386 M6.87071986,72.5462386 C6.87071986,36.3475193 36.2150393,7.00223986 72.4137586,7.00223986 L72.4137586,7.00223986 C108.613438,7.00223986 137.957757,36.3475193 137.957757,72.5462386 L137.957757,72.5462386 C137.957757,108.744958 108.613438,138.090237 72.4137586,138.090237 L72.4137586,138.090237 C36.2150393,138.090237 6.87071986,108.744958 6.87071986,72.5462386" id="path-3"></path>
        <linearGradient x1="-9.79900673e-05%" y1="50.0003116%" x2="100.000102%" y2="50.0003116%" id="linearGradient-5">
            <stop stop-color="#FFFFFF" offset="0%"></stop>
            <stop stop-color="#8E9190" offset="100%"></stop>
        </linearGradient>
    </defs>
    <g id="Page-1" stroke="none" stroke-width="1" fill="none" fill-rule="evenodd">
        <g id="image_project_01" transform="translate(-81.000000, -56.000000)">
            <g id="logo" transform="translate(81.000000, 56.000000)">
                <g id="Group-3" transform="translate(0.000000, 0.028480)">
                    <mask id="mask-2" fill="white">
                        <use xlink:href="#path-1"></use>
                    </mask>
                    <g id="Clip-2"></g>
                    <path d="M167.868669,84.0661423 C167.868669,130.421661 130.289469,167.999901 83.9339503,167.999901 C37.5784313,167.999901 0.000191999996,130.421661 0.000191999996,84.0661423 C0.000191999996,37.7106233 37.5784313,0.131423997 83.9339503,0.131423997 C130.289469,0.131423997 167.868669,37.7106233 167.868669,84.0661423" id="Fill-1" fill="#000630" mask="url(#mask-2)"></path>
                </g>
                <g id="Group-6" transform="translate(11.520000, 11.548480)">
                    <mask id="mask-4" fill="white">
                        <use xlink:href="#path-3"></use>
                    </mask>
                    <g id="Clip-5"></g>
                    <path d="M0.602879988,72.5462386 C0.602879988,112.205758 32.7542393,144.356157 72.4137586,144.356157 L72.4137586,144.356157 C112.074238,144.356157 144.225597,112.205758 144.225597,72.5462386 L144.225597,72.5462386 C144.225597,32.8847993 112.074238,0.734399985 72.4137586,0.734399985 L72.4137586,0.734399985 C32.7542393,0.734399985 0.602879988,32.8847993 0.602879988,72.5462386 M6.87071986,72.5462386 C6.87071986,36.3475193 36.2150393,7.00223986 72.4137586,7.00223986 L72.4137586,7.00223986 C108.613438,7.00223986 137.957757,36.3475193 137.957757,72.5462386 L137.957757,72.5462386 C137.957757,108.744958 108.613438,138.090237 72.4137586,138.090237 L72.4137586,138.090237 C36.2150393,138.090237 6.87071986,108.744958 6.87071986,72.5462386" id="Fill-4" fill="url(#linearGradient-5)" mask="url(#mask-4)"></path>
                </g>
                <g id="Group-21" transform="translate(10.560000, 17.468480)">
                    <path d="M73.0399952,125.731512 C40.5660261,125.731512 14.2399987,99.4057028 14.2399987,66.9320029 C14.2399987,34.4573277 40.5660261,8.13151876 73.0399952,8.13151876 C105.51494,8.13151876 131.839992,34.4573277 131.839992,66.9320029 C131.839992,99.4057028 105.51494,125.731512 73.0399952,125.731512 M73.4399952,0.131519234 C36.7679875,0.131519234 7.03999916,29.8610173 7.03999916,66.5324878 C7.03999916,103.203958 36.7679875,132.931511 73.4399952,132.931511 C110.112003,132.931511 139.839991,103.203958 139.839991,66.5324878 C139.839991,29.8610173 110.112003,0.131519234 73.4399952,0.131519234" id="Fill-7" fill="#C1C6C7"></path>
                    <polygon id="Fill-9" fill="#553EBB" points="5.2133759 35.8630393 43.4751351 35.8630393 73.3608945 71.2649586 102.785854 35.8630393 141.561213 35.8630393 72.9400002 135.03152"></polygon>
                    <path d="M146.791773,33.4630393 L136.331613,33.4630393 L103.911454,33.4630393 L101.659294,33.4630393 L100.220254,35.1948793 L73.3460145,67.5276786 L46.0282551,35.1660793 L44.5901751,33.4630393 L42.3600952,33.4630393 L10.4170558,33.4630393 L0.00969599981,33.4630393 L6.76713587,41.3791991 L69.3025603,136.77008 L72.9400002,141.03152 L76.5928001,136.78352 L139.971933,41.3926391 L146.791773,33.4630393 Z M136.331613,38.2630392 L72.9400002,131.53152 L10.4170558,38.2630392 L42.3600952,38.2630392 L73.3748145,75.0031985 L103.911454,38.2630392 L136.331613,38.2630392 Z" id="Fill-11" fill="#000630"></path>
                    <polygon id="Fill-13" fill="#FFFFFF" opacity="0.194359189" points="72.9400002 131.53152 84.4400002 114.53152 72.9400002 129.03152 61.4400002 114.53152"></polygon>
                    <polygon id="Fill-15" fill="#59469D" points="73.4400002 101.03152 103.911454 38.2630392 73.3748145 75.0031985"></polygon>
                    <polygon id="Fill-17" fill="#7459D3" points="73.4400002 101.03152 42.3600952 38.2630392 73.3748145 75.0031985"></polygon>
                    <polygon id="Fill-19" fill="#FFFFFF" opacity="0.250116257" points="42.3603832 38.2630392 73.4409602 100.90224 103.911742 38.2630392 73.4400002 103.03152"></polygon>
                </g>
            </g>
        </g>
    </g>
</svg>